{"success":true,"data":{"posts":[{"id":10,"title_ar":"المدن الذكية: رؤية مستقبلية للحياة الحضرية","content_ar":"تتجه المدن الحديثة نحو تطبيق مفهوم المدن الذكية لتحسين جودة الحياة للمواطنين. هذا المفهوم يشمل استخدام التكنولوجيا في إدارة المرور، والطاقة، والخدمات العامة بطريقة أكثر كفاءة واستدامة.","excerpt_ar":"المدن الذكية تستخدم التكنولوجيا لتحسين جودة الحياة الحضرية","slug":"المدن-الذكية-رؤية-مستقبلية-للحياة-الحضرية","category_id":2,"author_id":1,"featured_image":"/images/smartcity1.jpg","is_featured":false,"is_published":true,"views":0,"reading_time":1,"tags":[],"meta_description_ar":null,"meta_keywords_ar":null,"created_at":"2025-07-15T09:22:29.000Z","updated_at":"2025-07-15T09:22:29.000Z","category_name":"رياضة","category_slug":"sports","author_name":"admin","author_display_name":null,"url":"/post/10/المدن-الذكية-رؤية-مستقبلية-للحياة-الحضرية"},{"id":9,"title_ar":"الزراعة الذكية: تقنيات حديثة لإنتاج أفضل","content_ar":"تشهد الزراعة تطوراً تقنياً كبيراً من خلال تطبيق مفاهيم الزراعة الذكية. هذه التقنيات تشمل استخدام أجهزة الاستشعار، والذكاء الاصطناعي، وإنترنت الأشياء لتحسين الإنتاجية وتقليل استهلاك الموارد.","excerpt_ar":"الزراعة الذكية تستخدم تقنيات حديثة لتحسين الإنتاجية","slug":"الزراعة-الذكية-تقنيات-حديثة-لإنتاج-أفضل","category_id":5,"author_id":1,"featured_image":"/images/agriculture1.jpg","is_featured":false,"is_published":true,"views":0,"reading_time":1,"tags":[],"meta_description_ar":null,"meta_keywords_ar":null,"created_at":"2025-07-15T09:22:29.000Z","updated_at":"2025-07-15T09:22:29.000Z","category_name":"اقتصاد","category_slug":"economy","author_name":"admin","author_display_name":null,"url":"/post/9/الزراعة-الذكية-تقنيات-حديثة-لإنتاج-أفضل"},{"id":8,"title_ar":"الأمن السيبراني في عصر التحول الرقمي","content_ar":"مع تزايد الاعتماد على التكنولوجيا الرقمية، يصبح الأمن السيبراني أولوية قصوى للحكومات والشركات. تتطور التهديدات السيبرانية باستمرار، مما يتطلب استراتيجيات أمنية متقدمة وتدريب مستمر للكوادر المتخصصة.","excerpt_ar":"الأمن السيبراني يصبح أولوية قصوى في عصر التحول الرقمي","slug":"الأمن-السيبراني-في-عصر-التحول-الرقمي","category_id":2,"author_id":1,"featured_image":"/images/cybersecurity1.jpg","is_featured":false,"is_published":true,"views":0,"reading_time":1,"tags":[],"meta_description_ar":null,"meta_keywords_ar":null,"created_at":"2025-07-15T09:22:29.000Z","updated_at":"2025-07-15T09:22:29.000Z","category_name":"رياضة","category_slug":"sports","author_name":"admin","author_display_name":null,"url":"/post/8/الأمن-السيبراني-في-عصر-التحول-الرقمي"},{"id":7,"title_ar":"السياحة البيئية: نموذج جديد للسفر المستدام","content_ar":"تنمو السياحة البيئية كنموذج جديد للسفر المستدام الذي يحترم البيئة والثقافات المحلية. هذا النوع من السياحة يركز على الحفاظ على الطبيعة وتوفير تجارب أصيلة للزوار مع دعم المجتمعات المحلية اقتصادياً.","excerpt_ar":"السياحة البيئية تنمو كنموذج جديد للسفر المستدام","slug":"السياحة-البيئية-نموذج-جديد-للسفر-المستدام","category_id":1,"author_id":1,"featured_image":"/images/tourism1.jpg","is_featured":false,"is_published":true,"views":0,"reading_time":1,"tags":[],"meta_description_ar":null,"meta_keywords_ar":null,"created_at":"2025-07-15T09:22:29.000Z","updated_at":"2025-07-15T09:22:29.000Z","category_name":"سياسة","category_slug":"politics","author_name":"admin","author_display_name":null,"url":"/post/7/السياحة-البيئية-نموذج-جديد-للسفر-المستدام"},{"id":6,"title_ar":"الصحة العامة: استراتيجيات جديدة للوقاية والعلاج","content_ar":"تتطور استراتيجيات الصحة العامة باستمرار لمواجهة التحديات الصحية المعاصرة. من الطب الوقائي إلى العلاجات المتقدمة، تسعى النظم الصحية إلى تحسين جودة الرعاية الصحية وضمان وصولها لجميع فئات المجتمع.","excerpt_ar":"استراتيجيات الصحة العامة تتطور لمواجهة التحديات المعاصرة","slug":"الصحة-العامة-استراتيجيات-جديدة-للوقاية-والعلاج","category_id":3,"author_id":1,"featured_image":"/images/health1.jpg","is_featured":false,"is_published":true,"views":0,"reading_time":1,"tags":[],"meta_description_ar":null,"meta_keywords_ar":null,"created_at":"2025-07-15T09:22:29.000Z","updated_at":"2025-07-15T09:22:29.000Z","category_name":"تكنولوجيا","category_slug":"technology","author_name":"admin","author_display_name":null,"url":"/post/6/الصحة-العامة-استراتيجيات-جديدة-للوقاية-والعلاج"}],"pagination":{"page":1,"limit":5,"total":10,"pages":2},"filters":{"status":"published","sort_by":"created_at","sort_order":"desc"}}}